{"count":4005438,"page":1,"page_count":100,"page_size":100,"products":[{"code":"6111035000430","product_name":"Sidi Ali"},{"code":"6111242100992","product_name":"Perly"},{"code":"6111035002175","product_name":"Sidi Ali"},{"code":"6111035000058","product_name":"Eau minérale naturelle"},{"code":"6111252421568","product_name":"اكوافينا"},{"code":"6111266962187","product_name":"Lait"},{"code":"3274080005003","product_name":"Eau De Source"},{"code":"6111246721261","product_name":"Fromage blanc nature"},{"code":"6111242101180","product_name":"uht jaouda 1L"},{"code":"6111242106949","product_name":"Jben"},{"code":"6111128000071","product_name":"Ain Saïss"},{"code":"6111035502828","product_name":"Eau minéral naturelle"},{"code":"6111035000027","product_name":"6111035000027"},{"code":"50184453","product_name":"Marmite Yeast Extract"},{"code":"6111242100985","product_name":""},{"code":"6111032009665","product_name":"Lait Frais"},{"code":"6111099003897","product_name":""},{"code":"5449000054227","product_name":"Original Taste"},{"code":"6111252421582","product_name":"اكوافينا"},{"code":"7622210449283","product_name":"Prince Goût Chocolat"},{"code":"3046920029759","product_name":"Excellence Noir Prodigieux 90% Cacao"},{"code":"3046920028004","product_name":"Excellence 70% Cocoa Intense Dark"},{"code":"6111035003035","product_name":"Oulmes natural carbonated water"},{"code":"3017620425035","product_name":"Nutella"},{"code":"5449000147417","product_name":"Orange juice"},{"code":"6111031005064","product_name":"Tonik"},{"code":"6111180000231","product_name":"levure pâtisserie"},{"code":"6111128000163","product_name":"Ain Saiss Eau Minerale Naturelle"},{"code":"3175680011480","product_name":"Sésame"},{"code":"6111162000839","product_name":"Confiture de fraise"},{"code":"6111035001659","product_name":"Ain Atlas"},{"code":"6111242100206","product_name":"Yaourt nature"},{"code":"8410376009392","product_name":"zero sin azúcares Fibra"},{"code":"3046920028363","product_name":"Excellence 85% Cacao Rich Dark"},{"code":"6111035001635","product_name":"Ain Atlas"},{"code":"6111184004129","product_name":"Mayonnaise recette originale"},{"code":"5025125000006","product_name":"Sourdough White Ciabattin Bread"},{"code":"5411188112709","product_name":"Geröstete Mandel Ohne Zucker"},{"code":"6111128000460","product_name":""},{"code":"20995553","product_name":"Dark Chocolate 85% Cocoa"},{"code":"3268840001008","product_name":"CRISTALINE Eau De Source 0.5L"},{"code":"3017620422003","product_name":"Nutella"},{"code":"5025125000112","product_name":"The Great White Sourdough"},{"code":"20005733","product_name":""},{"code":"5025125000037","product_name":"Sourdough Grains & Seeds"},{"code":"6111203006653","product_name":"Cheddar"},{"code":"20724696","product_name":"Almonds"},{"code":"6111184001562","product_name":"Star Branded Iodized Salt"},{"code":"6111184004730","product_name":"Ketchup"},{"code":"6111029000118","product_name":"Cosumar Sucre En Lingot Pour Le Thé 1 kg"},{"code":"20267605","product_name":"Cashewkerne"},{"code":"3362600011044","product_name":"Henry’s"},{"code":"6111032001003","product_name":"Assil"},{"code":"6111032000600","product_name":"Salim"},{"code":"5449000214911","product_name":"Coca-Cola"},{"code":"6111242100305","product_name":"Cremy"},{"code":"5449000061515","product_name":"Ciel"},{"code":"42104964","product_name":"Ciel 33cl"},{"code":"8425197712024","product_name":""},{"code":"6111128000088","product_name":"ain saiss 50cl"},{"code":"6111246721278","product_name":"Cream cheese"},{"code":"5740900404465","product_name":"Spreadable Slightly Salted"},{"code":"6111035003523","product_name":""},{"code":"6111035003004","product_name":"Oulmes Eau Gazeuse"},{"code":"7622210578464","product_name":"Organic 70% Dark Chocolate Bar"},{"code":"6111246954461","product_name":"jibal jben"},{"code":"6111259343108","product_name":"KING COOKIES"},{"code":"6111018903161","product_name":"Nescafé Classic"},{"code":"6111032006619","product_name":"Jamila"},{"code":"6111251420166","product_name":"Eau"},{"code":"6111252421575","product_name":"Aquafina 50cl"},{"code":"8445290615350","product_name":"sauce tomate cuisinée"},{"code":"5449000214799","product_name":"Coca-Cola Zero"},{"code":"3362600011228","product_name":"Sable coco Henry s 42g"},{"code":"5000157024671","product_name":"Fasole albă în sos de roșii"},{"code":"6111035001673","product_name":"Aïn Atlas 50cl"},{"code":"20047238","product_name":""},{"code":"5411188124689","product_name":"Hafer Milch"},{"code":"7394376616228","product_name":"Oat Drink Barista Edition"},{"code":"6111250470742","product_name":"Lait U.H.T entier"},{"code":"6111203001467","product_name":"margarine la prairie 225g"},{"code":"7300400481595","product_name":"Tartine croustillante Authentique"},{"code":"3046920022651","product_name":"Excellence Noir Intense 70% Cacao"},{"code":"6111037000599","product_name":"Familia 200g"},{"code":"6111184001661","product_name":"Star vinaigre de table BLANC"},{"code":"6111032008583","product_name":""},{"code":"8052575090230","product_name":"Nocciolata"},{"code":"3608580065340","product_name":"Pâte à tartiner noisettes et cacao"},{"code":"5060042641000","product_name":"Lightly Sea Salted"},{"code":"5010029000016","product_name":"Weetabix"},{"code":"7622210584724","product_name":"Dark chocolate"},{"code":"3057640257773","product_name":"Eau Minérale Naturelle"},{"code":"6111162001218","product_name":"Filets de maquereau"},{"code":"3046920022606","product_name":"Excellence Noir Puissant 85% Cacao"},{"code":"3155251205296","product_name":"Tartine Doux"},{"code":"6111251753912","product_name":"611251753912"},{"code":"6111248360130","product_name":"Aïn Soltane"},{"code":"6111003031107","product_name":""},{"code":"3229820100234","product_name":"Fourrés Chocolat Noir"},{"code":"6111184001074","product_name":"Confiture De Fraises 430 G"}],"skip":0}